…
# Apply the function to the summary_allegations column
data <- data %>%
  mutate(summary_allegations = sapply(summary_allegations, replace_with_keyword))
#show the data
print(data)
```

    ## # A tibble: 117,120 × 9
    ##    summary_allegations              incident_date filed_date closed_date        
    ##    <chr>                            <date>        <date>     <dttm>             
    ##  1 Department: Police; Summary All… NA            NA         2014-09-10 00:00:00
    ##  2 Department: Police; Summary All… NA            NA         2014-08-21 00:00:00
    ##  3 Department: Police; Summary All… NA            NA         2014-07-18 00:00:00
    ##  4 Department: Police; Summary All… NA            NA         2014-09-19 00:00:00
    ##  5 Department: Courts; Summary All… NA            NA         2015-01-12 00:00:00
    ##  6 Department: Police; Summary All… NA            NA         2015-03-23 00:00:00
    ##  7 Department: Police; Summary All… NA            NA         2015-09-22 00:00:00
    ##  8 Department: Police; Summary All… NA            NA         2015-11-24 00:00:00
    ##  9 Department: Courts; Summary All… NA            NA         2016-02-03 00:00:00
    ## 10 Department: Courts; Summary All… 2016-07-15    NA         2016-10-27 00:00:00
    ## # ℹ 117,110 more rows
    ## # ℹ 5 more variables: amount_awarded <dbl>, location <chr>,
    ## #   calendar_year <dbl>, incident_year <dbl>, state <chr>
…
    # Apply the function to the summary_allegations column
    data <- data %>%
      mutate(summary_allegations = sapply(summary_allegations, replace_with_keyword))

    # Group by the new, standardized summary_allegations and count occurrences
    grouped_data <- data %>%
      group_by(summary_allegations) %>%
      summarise(count = n())

    # View the grouped data with counts
    print(grouped_data)

    ## # A tibble: 361 × 2
    ##    summary_allegations                                                     count
    ##    <chr>                                                                   <int>
    ##  1 14-3511                                                                     3
    ##  2 2001: Excessive Force (Police)                                            189
    ##  3 2005: Unlawful Arrest (Police)                                             48
    ##  4 2010: Unlawful Entry (Police)                                               6
    ##  5 2015: Unlawful seizure of property (Police)                                 3
    ##  6 2060: Alleges Malicious Prosecution (Police)                                6
    ##  7 42 U.S.C. sec. 1983, Unlawful Arrest; Malicious Prosecution; First Ame…     3
    ##  8 4th amendment/seizure                                                       3
    ##  9 : 1983 case                                                                 3
    ## 10 : ADR-Claim 684, Bankruptcy Court Order, Chapter 9,                         3
    ## # ℹ 351 more rows

``` r
# show the entire data
print(data)
```

    ## # A tibble: 117,120 × 9
    ##    summary_allegations incident_date filed_date closed_date        
    ##    <chr>               <date>        <date>     <dttm>             
    ##  1 Other               NA            NA         2014-09-10 00:00:00
    ##  2 Other               NA            NA         2014-08-21 00:00:00
    ##  3 Other               NA            NA         2014-07-18 00:00:00
    ##  4 Wrongful Arrest     NA            NA         2014-09-19 00:00:00
    ##  5 Wrongful Arrest     NA            NA         2015-01-12 00:00:00
    ##  6 Other               NA            NA         2015-03-23 00:00:00
    ##  7 Other               NA            NA         2015-09-22 00:00:00
    ##  8 Wrongful Demolition NA            NA         2015-11-24 00:00:00
    ##  9 Wrongful Arrest     NA            NA         2016-02-03 00:00:00
    ## 10 Other               2016-07-15    NA         2016-10-27 00:00:00
    ## # ℹ 117,110 more rows
    ## # ℹ 5 more variables: amount_awarded <dbl>, location <chr>,
    ## #   calendar_year <dbl>, incident_year <dbl>, state <chr>
…
