…
    ## `summarise()` has grouped output by 'R', 'F'. You can override using the
    ## `.groups` argument.

``` r
# Find combinations with above-average response rates
above_average_combinations <- rfm_response_rate %>%
  filter(response_rate > overall_response_rate)

print(above_average_combinations)
```

    ## # A tibble: 206 × 4
    ## # Groups:   R, F [91]
    ##        R     F     M response_rate
    ##    <int> <int> <int>         <dbl>
    ##  1     2     1   131           1  
    ##  2     2     1   140           1  
    ##  3     2     1   148           1  
    ##  4     2     1   152           0.5
    ##  5     2     1   230           1  
    ##  6     2     1   297           1  
    ##  7     2     1   299           1  
    ##  8     2     2    43           1  
    ##  9     2     2   203           0.5
    ## 10     2     2   274           1  
    ## # ℹ 196 more rows
…
